<?xml version="1.0" encoding="UTF-8"?>
<svg width="40px" height="40px" viewBox="0 0 40 40" version="1.1" xmlns="http://www.w3.org/2000/svg" xmlns:xlink="http://www.w3.org/1999/xlink">
    <title>+</title>
    <g id="Page-1" stroke="none" stroke-width="1" fill="none" fill-rule="evenodd">
        <g id="specs-4-recherche" transform="translate(-978.000000, -316.000000)">
            <g id="Group-6" transform="translate(978.000000, 316.000000)">
                <circle id="Oval" fill="#006072" cx="20" cy="20" r="20"></circle>
                <g id="Group-5" transform="translate(8.695652, 9.730135)" stroke="#FFFFFF" stroke-linecap="round" stroke-linejoin="round" stroke-width="4">
                    <line x1="0.403726708" y1="10.4797601" x2="22.2049689" y2="10.4797601" id="Line-4"></line>
                    <line x1="0.869565217" y1="10.5247376" x2="21.9190405" y2="10.5247376" id="Line-4" transform="translate(11.394303, 10.524738) rotate(90.000000) translate(-11.394303, -10.524738) "></line>
                </g>
            </g>
        </g>
    </g>
</svg>