<?xml version="1.0" encoding="UTF-8"?>
<svg width="22px" height="11px" viewBox="0 0 22 11" version="1.1" xmlns="http://www.w3.org/2000/svg" xmlns:xlink="http://www.w3.org/1999/xlink">
    <title>ArrowDown</title>
    <g id="Page-1" stroke="none" stroke-width="1" fill="none" fill-rule="evenodd" stroke-linejoin="round">
        <g id="specs-2-collections" transform="translate(-454.000000, -709.000000)" fill="#006072" stroke="#006072" stroke-width="2">
            <g id="Group" transform="translate(244.000000, 701.500000)">
                <polygon id="ArrowDown" points="229.116518 8.5 230.285714 9.4703125 220.642857 17.5 211 9.4703125 212.16317 8.5 220.642857 15.5546875"></polygon>
            </g>
        </g>
    </g>
</svg>