<?xml version="1.0" encoding="utf-8"?>
<!-- Generator: Adobe Illustrator 25.0.0, SVG Export Plug-In . SVG Version: 6.00 Build 0)  -->
<svg version="1.1" id="Calque_1" xmlns="http://www.w3.org/2000/svg" xmlns:xlink="http://www.w3.org/1999/xlink" x="0px" y="0px"
	 viewBox="0 0 19 27" style="enable-background:new 0 0 19 27;" xml:space="preserve">
<style type="text/css">
	.st0{fill-rule:evenodd;clip-rule:evenodd;fill:#006072;}
</style>
<g id="Page-1">
	<g id="specs-1-accueil" transform="translate(-48.000000, -1140.000000)">
		<g id="Group" transform="translate(0.000000, 1083.000000)">
			<g id="Group-15" transform="translate(48.674451, 56.559102)">
				<g id="Lien-1" transform="translate(0.000000, 1.236453)">
					<path id="Fill-1" class="st0" d="M8.8,4.3c2.6,0,4.7,2.2,4.7,4.9s-2.1,4.9-4.7,4.9S4.1,12,4.1,9.3S6.2,4.3,8.8,4.3 M8.8,0
						C4,0,0,4.2,0,9.3c0,3.3,1.3,5.9,2.9,8.4s3.7,5,5.4,8c0.2,0.4,0.8,0.4,1,0c1.7-3,3.8-5.9,5.4-8.5c1.6-2.7,2.9-5.2,2.9-7.8
						C17.6,4.2,13.7,0,8.8,0"/>
				</g>
			</g>
		</g>
	</g>
</g>
</svg>
